[
    {
        "variable_type": "env_var",
        "key": "architectures",
        "value": "x86_64"
    },
    {
        "variable_type": "env_var",
        "key": "server_url",
        "value": "https://brewhub.engineering.redhat.com/brewhub"
    },
    {
        "variable_type": "env_var",
        "key": "nvr",
        "value": "kernel-rt-4.0.0-193.8.1.rt13.59.el8_2.dyntick.test.cki.kt1.src.rpm"
    },
    {
        "variable_type": "env_var",
        "key": "brew_task_id",
        "value": "29202630"
    },
    {
        "variable_type": "env_var",
        "key": "name",
        "value": "kernel-rt-rhel8"
    },
    {
        "variable_type": "env_var",
        "key": "submitter",
        "value": "somebody@redhat.com"
    }
]
