{
    "id": 16,
    "description": "",
    "name": "brew-pipeline",
    "name_with_namespace": "CKI Project / brew-pipeline",
    "path": "brew-pipeline",
    "path_with_namespace": "cki-project/brew-pipeline",
    "created_at": "2019-02-08T14:52:56.234Z",
    "default_branch": "master",
    "tag_list": [],
    "ssh_url_to_repo": "git@gitlab:cki-project/brew-pipeline.git",
    "http_url_to_repo": "https://gitlab/cki-project/brew-pipeline.git",
    "web_url": "https://gitlab/cki-project/brew-pipeline",
    "readme_url": "https://gitlab/cki-project/brew-pipeline/-/blob/master/README.md",
    "avatar_url": null,
    "star_count": 0,
    "forks_count": 0,
    "last_activity_at": "2020-06-10T16:05:57.447Z",
    "namespace": {
        "id": 36,
        "name": "CKI Project",
        "path": "cki-project",
        "kind": "group",
        "full_path": "cki-project",
        "parent_id": null,
        "avatar_url": null,
        "web_url": "https://gitlab/groups/cki-project"
    },
    "_links": {
        "self": "https://gitlab/api/v4/projects/16",
        "issues": "https://gitlab/api/v4/projects/16/issues",
        "merge_requests": "https://gitlab/api/v4/projects/16/merge_requests",
        "repo_branches": "https://gitlab/api/v4/projects/16/repository/branches",
        "labels": "https://gitlab/api/v4/projects/16/labels",
        "events": "https://gitlab/api/v4/projects/16/events",
        "members": "https://gitlab/api/v4/projects/16/members"
    },
    "empty_repo": false,
    "archived": false,
    "visibility": "public",
    "resolve_outdated_diff_discussions": false,
    "container_registry_enabled": true,
    "issues_enabled": true,
    "merge_requests_enabled": true,
    "wiki_enabled": true,
    "jobs_enabled": true,
    "snippets_enabled": true,
    "can_create_merge_request_in": true,
    "issues_access_level": "enabled",
    "repository_access_level": "enabled",
    "merge_requests_access_level": "enabled",
    "wiki_access_level": "enabled",
    "builds_access_level": "enabled",
    "snippets_access_level": "enabled",
    "pages_access_level": "enabled",
    "emails_disabled": null,
    "shared_runners_enabled": true,
    "lfs_enabled": true,
    "creator_id": 38,
    "import_status": "none",
    "import_error": null,
    "open_issues_count": 0,
    "runners_token": "",
    "ci_default_git_depth": null,
    "public_jobs": true,
    "build_git_strategy": "fetch",
    "build_timeout": 86400,
    "auto_cancel_pending_pipelines": "disabled",
    "build_coverage_regex": "",
    "ci_config_path": "",
    "shared_with_groups": [],
    "only_allow_merge_if_pipeline_succeeds": false,
    "request_access_enabled": false,
    "only_allow_merge_if_all_discussions_are_resolved": false,
    "remove_source_branch_after_merge": null,
    "printing_merge_request_link_enabled": true,
    "merge_method": "merge",
    "suggestion_commit_message": null,
    "auto_devops_enabled": false,
    "auto_devops_deploy_strategy": "continuous",
    "autoclose_referenced_issues": true,
    "repository_storage": "default",
    "permissions": {
        "project_access": null,
        "group_access": {
            "access_level": 50,
            "notification_level": 3
        }
    }
}
